^D:\USERS\MARCO\DOCUMENTS\WORKSPACE\VISUAL STUDIO\CPP\LAB 2 CLASS\LAB 2 CLASS\DEBUG\ANIMAL.OBJ|D:\USERS\MARCO\DOCUMENTS\WORKSPACE\VISUAL STUDIO\CPP\LAB 2 CLASS\LAB 2 CLASS\DEBUG\SOURCE.OBJ
/OUT:"D:\USERS\MARCO\DOCUMENTS\WORKSPACE\VISUAL STUDIO\CPP\LAB 2 CLASS\DEBUG\LAB 2 CLASS.EXE" /INCREMENTAL /NOLOGO KERNEL32.LIB USER32.LIB GDI32.LIB WINSPOOL.LIB COMDLG32.LIB ADVAPI32.LIB SHELL32.LIB OLE32.LIB OLEAUT32.LIB UUID.LIB ODBC32.LIB ODBCCP32.LIB /MANIFEST /MANIFESTUAC:"level='asInvoker' uiAccess='false'" /manifest:embed /DEBUG:FASTLINK /PDB:"D:\USERS\MARCO\DOCUMENTS\WORKSPACE\VISUAL STUDIO\CPP\LAB 2 CLASS\DEBUG\LAB 2 CLASS.PDB" /SUBSYSTEM:CONSOLE /TLBID:1 /DYNAMICBASE /NXCOMPAT /IMPLIB:"D:\USERS\MARCO\DOCUMENTS\WORKSPACE\VISUAL STUDIO\CPP\LAB 2 CLASS\DEBUG\LAB 2 CLASS.LIB" /MACHINE:X86 DEBUG\ANIMAL.OBJ
DEBUG\SOURCE.OBJ
